…
```r
fixeddt %>% group_by(date) %>% dplyr::summarise(mean(steps)) 
```

```
## Warning in format.POSIXlt(as.POSIXlt(x), ...): unknown timezone 'zone/tz/
## 2017c.1.0/zoneinfo/America/Sao_Paulo'
```

```
## # A tibble: 61 x 2
##          date `mean(steps)`
##        <date>         <dbl>
##  1 2012-10-01      37.38260
##  2 2012-10-02       0.43750
##  3 2012-10-03      39.41667
##  4 2012-10-04      42.06944
##  5 2012-10-05      46.15972
##  6 2012-10-06      53.54167
##  7 2012-10-07      38.24653
##  8 2012-10-08      37.38260
##  9 2012-10-09      44.48264
## 10 2012-10-10      34.37500
## # ... with 51 more rows
```
…
